…
<!-- end list -->

``` r
LongDelta <- Long %>%
        group_by(pidp) %>%
        mutate(NumWave = length(wave)) %>%
        filter(NumWave == 7) %>%
        filter(!is.na(vote6)) %>%
        filter(!is.na(sex_dv))
        

LongDelta
```

    ## # A tibble: 110,656 x 7
    ## # Groups:   pidp [16,165]
    ##        pidp wave  age_dv memorig sex_dv vote6 NumWave
    ##       <int> <chr>  <int>   <int> <chr>  <int>   <int>
    ##  1 68004087 a         59       1 Male       2       7
    ##  2 68004087 b         60       1 Male       2       7
    ##  3 68004087 c         61       1 Male       2       7
    ##  4 68004087 d         62       1 Male       1       7
    ##  5 68004087 e         63       1 Male       2       7
    ##  6 68004087 f         64       1 Male       2       7
    ##  7 68004087 g         65       1 Male       2       7
    ##  8 68006127 a         39       1 Female     4       7
    ##  9 68006127 b         40       1 Female     4       7
    ## 10 68006127 c         41       1 Female     4       7
    ## # ... with 110,646 more rows

``` r
Delta <- LongDelta %>%
        group_by(pidp) %>%
        summarise(Delta = sum(abs(vote6[wave == "a"] - vote6[wave == "b"]), abs(vote6[wave == "b"] - vote6[wave == "c"]), abs(vote6[wave == "c"] - vote6[wave == "d"]), abs(vote6[wave == "d"] - vote6[wave == "e"]), abs(vote6[wave == "e"] - vote6[wave == "f"]), abs(vote6[wave == "f"] - vote6[wave == "g"])))
        
        
Delta  
```

    ## # A tibble: 16,165 x 2
    ##        pidp Delta
    ##       <int> <int>
    ##  1 68004087     2
    ##  2 68006127     0
    ##  3 68006807     1
    ##  4 68008847     6
    ##  5 68009527     2
    ##  6 68010887     6
    ##  7 68020407     4
    ##  8 68025847     8
    ##  9 68029927     5
    ## 10 68029931     2
    ## # ... with 16,155 more rows

``` r
FullDelta <- LongDelta %>%
        left_join(Delta, by = "pidp") 
        

FullDelta
```

    ## # A tibble: 110,656 x 8
    ## # Groups:   pidp [16,165]
    ##        pidp wave  age_dv memorig sex_dv vote6 NumWave Delta
    ##       <int> <chr>  <int>   <int> <chr>  <int>   <int> <int>
    ##  1 68004087 a         59       1 Male       2       7     2
    ##  2 68004087 b         60       1 Male       2       7     2
    ##  3 68004087 c         61       1 Male       2       7     2
    ##  4 68004087 d         62       1 Male       1       7     2
    ##  5 68004087 e         63       1 Male       2       7     2
    ##  6 68004087 f         64       1 Male       2       7     2
    ##  7 68004087 g         65       1 Male       2       7     2
    ##  8 68006127 a         39       1 Female     4       7     0
    ##  9 68006127 b         40       1 Female     4       7     0
    ## 10 68006127 c         41       1 Female     4       7     0
    ## # ... with 110,646 more rows
…
        
AvgDelta  
```

    ## # A tibble: 2 x 2
    ##   sex_dv AvgDelta
    ##   <chr>     <dbl>
    ## 1 Female     2.46
    ## 2 Male       2.46

``` r
DeltaW1
```

    ## # A tibble: 87 x 2
    ##    age_dv AvgDltaAge
    ##     <int>      <dbl>
    ##  1     15       0.5 
    ##  2     16       2.52
    ##  3     17       2.24
    ##  4     18       2.50
    ##  5     19       2.63
    ##  6     20       2.28
    ##  7     21       2.96
    ##  8     22       2.54
    ##  9     23       2.33
    ## 10     24       2.15
    ## # ... with 77 more rows
…
